{
  "name": "TX001_TaxPack",
  "description": "This automation operates the TaxPack process. For several companies, the robot downloads monthly reports of listed organizations from SAP application, then update the data in SJP Tax template, and upload to SharePoint.",
  "main": "Main.xaml",
  "dependencies": {
    "Microsoft.Activities": "[1.0.1]",
    "Microsoft.Activities.Extensions": "[2.0.6.9]",
    "UiPath.Credentials.Activities": "1.1.6479.13204",
    "UiPath.Excel.Activities": "[2.7.2]",
    "UiPath.Mail.Activities": "[1.7.2]",
    "UiPath.System.Activities": "[19.10.1]",
    "UiPath.UIAutomation.Activities": "[20.4.2]",
    "UiPath.WebAPI.Activities": "[1.4.4]"
  },
  "webServices": [],
  "schemaVersion": "4.0",
  "studioVersion": "19.10.0.151",
  "projectVersion": "1.0.0.0",
  "runtimeOptions": {
    "autoDispose": false,
    "isPausable": true,
    "requiresUserInteraction": true,
    "supportsPersistence": false,
    "excludedLoggedData": [
      "Private:*",
      "*password*"
    ],
    "executionType": "Workflow"
  },
  "designOptions": {
    "projectProfile": "Developement",
    "outputType": "Process",
    "libraryOptions": {
      "includeOriginalXaml": false,
      "privateWorkflows": []
    },
    "fileInfos": []
  },
  "expressionLanguage": "VisualBasic"
}